<svg width="24" height="24" viewBox="0 0 24 24" fill="none" xmlns="http://www.w3.org/2000/svg">
<path d="M16 9C16 10.1046 16.8954 11 18 11C19.1046 11 20 10.1046 20 9C20 7.8954 19.1046 7 18 7C16.8954 7 16 7.8954 16 9ZM16 9H4M8 16C8 14.8954 7.10457 14 6 14C4.89543 14 4 14.8954 4 16C4 17.1046 4.89543 18 6 18C7.10457 18 8 17.1046 8 16ZM8 16H20" stroke="white" stroke-width="1.5" stroke-linecap="round"/>
</svg>
